{"current_page":1,"data":[{"sp_ma":"32","sp_ten":"DamCaMaps","sp_giaGoc":233333,"sp_giaBan":400000,"sp_sale":12,"sp_hinh":"16993721060-product.jpg","sp_hinh1":"16993721061-product.jpg","sp_hinh2":"16993721062-product.jpg","sp_hinh3":"16993721063-product.jpg","sp_thongTin":"<p>&nbsp;<\/p><p>M\u00f4 t\u1ea3 s\u1ea3n ph\u1ea9m<\/p><p>&nbsp;<\/p>","sp_taoMoi":"2023-11-07 08:48:26","sp_capNhat":"2023-11-07 08:48:26","sp_trangThai":1,"l_ma":4,"color_id":1},{"sp_ma":"AK06392","sp_ten":"\u00c1O VEST THI\u1ebeT K\u1ebe AK06392","sp_giaGoc":40000,"sp_giaBan":20000,"sp_sale":0,"sp_hinh":"16987430270-product.webp","sp_hinh1":"16987430271-product.webp","sp_hinh2":"16987430272-product.webp","sp_hinh3":"16987430273-product.webp","sp_thongTin":"<p><strong>Ch\u1ea5t li\u1ec7u:&nbsp;<\/strong>v\u1ea3i th\u00f4<\/p><p><strong>Ki\u1ec3u d\u00e1ng:&nbsp;<\/strong>\u00e1o vest thi\u1ebft k\u1ebf chi\u1ebft eo, c\u1ed5 b\u1ebb 2 ve, tone m\u00e0u x\u00e1m&nbsp;tr\u01a1n<br><strong>S\u1ea3n ph\u1ea9m thu\u1ed9c d\u00f2ng s\u1ea3n ph\u1ea9m :&nbsp;<\/strong>NEM NEW<\/p><p><strong>Th\u00f4ng tin ng\u01b0\u1eddi m\u1eabu:&nbsp;<\/strong>m\u1eb7c s\u1ea3n ph\u1ea9m size 2<\/p><p><strong>S\u1ea3n ph\u1ea9m k\u1ebft h\u1ee3p:&nbsp;<\/strong>qu\u1ea7n Q06402<\/p>","sp_taoMoi":"2023-10-31 02:03:47","sp_capNhat":"2023-10-31 02:03:47","sp_trangThai":1,"l_ma":3,"color_id":1},{"sp_ma":"AK06842","sp_ten":"\u00c1O VEST THI\u1ebeT K\u1ebe AK06842","sp_giaGoc":40000,"sp_giaBan":20000,"sp_sale":0,"sp_hinh":"16986843530-product.webp","sp_hinh1":"16986843531-product.webp","sp_hinh2":"16986843532-product.webp","sp_hinh3":"16986843533-product.webp","sp_thongTin":"<p><strong>Ch\u1ea5t li\u1ec7u:&nbsp;<\/strong>v\u1ea3i th\u00f4<\/p><p><strong>Ki\u1ec3u d\u00e1ng:&nbsp;<\/strong>\u00e1o vest thi\u1ebft k\u1ebf chi\u1ebft eo, c\u1ed5 b\u1ebb 2 ve, tone m\u00e0u xanh tr\u01a1n<br><strong>S\u1ea3n ph\u1ea9m thu\u1ed9c d\u00f2ng s\u1ea3n ph\u1ea9m :&nbsp;<\/strong>NEM NEW<\/p><p><strong>Th\u00f4ng tin ng\u01b0\u1eddi m\u1eabu:&nbsp;<\/strong>m\u1eb7c s\u1ea3n ph\u1ea9m size 2<\/p><p><strong>S\u1ea3n ph\u1ea9m k\u1ebft h\u1ee3p:&nbsp;<\/strong>qu\u1ea7n Q06852<\/p>","sp_taoMoi":"2023-10-30 09:45:53","sp_capNhat":"2023-10-30 09:45:53","sp_trangThai":1,"l_ma":3,"color_id":1},{"sp_ma":"AL62122","sp_ten":"\u00c1O LEN V\u1eb6N TH\u1eeaNG AL62122","sp_giaGoc":200000,"sp_giaBan":300000,"sp_sale":0,"sp_hinh":"16987693750-product.jpg","sp_hinh1":"16987693751-product.jpg","sp_hinh2":"16987693752-product.jpg","sp_hinh3":"16987693753-product.jpg","sp_thongTin":"<p><strong>Ch\u1ea5t li\u1ec7u:<\/strong>&nbsp;v\u1ea3i len&nbsp;<br><strong>Ki\u1ec3u d\u00e1ng:&nbsp;<\/strong>\u200b\u00e1o len ng\u1eafn tay, c\u1ed5 tim,&nbsp;tone m\u00e0u tr\u1eafng&nbsp;ph\u1ed1i vi\u1ec1n \u0111en<\/p><p><strong>S\u1ea3n ph\u1ea9m thu\u1ed9c d\u00f2ng:&nbsp;<\/strong>NEM NEW<\/p><p><strong>Th\u00f4ng tin ng\u01b0\u1eddi m\u1eabu:<\/strong>&nbsp;cao 1m60, n\u1eb7ng 50kg, s\u1ed1 \u0111o 84 - 64&nbsp;- 90 m\u1eb7c s\u1ea3n ph\u1ea9m size 2<\/p><p><strong>S\u1ea3n ph\u1ea9m k\u1ebft h\u1ee3p:&nbsp;<\/strong>qu\u1ea7n Q06732<\/p>","sp_taoMoi":"2023-10-31 09:22:55","sp_capNhat":"2023-10-31 09:22:55","sp_trangThai":1,"l_ma":5,"color_id":1},{"sp_ma":"D40982","sp_ten":"\u0110\u1ea6M C\u1ed4 VEST D40982","sp_giaGoc":200000,"sp_giaBan":300000,"sp_sale":0,"sp_hinh":"16993685560-product.jpg","sp_hinh1":"16993685561-product.jpg","sp_hinh2":"16993685562-product.jpg","sp_hinh3":"16993685563-product.jpg","sp_thongTin":"<p><strong>Ch\u1ea5t li\u1ec7u:&nbsp;<\/strong>v\u1ea3i t\u1ed5ng h\u1ee3p cao c\u1ea5p<br><strong>Ki\u1ec3u d\u00e1ng:<\/strong>&nbsp;\u0111\u1ea7m thi\u1ebft k\u1ebf d\u00e1ng ch\u1eef A d\u00e0i qua g\u1ed1i, tone m\u00e0u h\u1ed3ng nh\u1ea1t, c\u1ed5 vest<br><strong>S\u1ea3n ph\u1ea9m thu\u1ed9c d\u00f2ng s\u1ea3n ph\u1ea9m:&nbsp;<\/strong>&nbsp;NEM ONLINE<br><strong>Th\u00f4ng tin ng\u01b0\u1eddi m\u1eabu:<\/strong>&nbsp;m\u1eb7c s\u1ea3n ph\u1ea9m size 2<\/p>","sp_taoMoi":"2023-11-07 07:49:16","sp_capNhat":"2023-11-07 07:49:16","sp_trangThai":1,"l_ma":2,"color_id":1},{"sp_ma":"Q06682","sp_ten":"\u00c1O S\u01a0 MI C\u00c1NH B\u01af\u1edaM Q06682","sp_giaGoc":200000,"sp_giaBan":300000,"sp_sale":0,"sp_hinh":"16987690410-product.webp","sp_hinh1":"16987690411-product.webp","sp_hinh2":"16987690412-product.webp","sp_hinh3":"16987690413-product.webp","sp_thongTin":"<p><strong>Ch\u1ea5t li\u1ec7u:<\/strong>&nbsp;v\u1ea3i th\u00f4<br><strong>Ki\u1ec3u d\u00e1ng:&nbsp;<\/strong>\u200bqu\u1ea7n d\u00e0i thi\u1ebft k\u1ebf d\u00e1ng \u1ed1ng \u0111\u1ee9ng, tone m\u00e0u \u0111en&nbsp;tr\u01a1n, g\u1ea5u \u0111\u00ednh khuy<\/p><p><strong>S\u1ea3n ph\u1ea9m thu\u1ed9c d\u00f2ng:&nbsp;<\/strong>NEM NEW<\/p><p><strong>Th\u00f4ng tin ng\u01b0\u1eddi m\u1eabu:<\/strong>&nbsp;cao 1m60, n\u1eb7ng 50kg, s\u1ed1 \u0111o 84 - 64&nbsp;- 90 m\u1eb7c s\u1ea3n ph\u1ea9m size 2<\/p><p><strong>S\u1ea3n ph\u1ea9m k\u1ebft h\u1ee3p:<\/strong>\u00e1o SM20142<\/p>","sp_taoMoi":"2023-10-31 09:17:21","sp_capNhat":"2023-10-31 09:17:21","sp_trangThai":1,"l_ma":4,"color_id":1},{"sp_ma":"SM11042","sp_ten":"S\u01a0 MI H\u1eccA TI\u1ebeT SM11042","sp_giaGoc":300000,"sp_giaBan":450000,"sp_sale":0,"sp_hinh":"16987691720-product.webp","sp_hinh1":"16987691721-product.webp","sp_hinh2":"16987691722-product.webp","sp_hinh3":"16987691723-product.webp","sp_thongTin":"<p>MUA NGAY<\/p><p><strong>Ch\u1ea5t li\u1ec7u:&nbsp;<\/strong>v\u1ea3i l\u01b0\u1edbi<\/p><p><strong>Ki\u1ec3u d\u00e1ng:&nbsp;<\/strong>\u00e1o s\u01a1 mi thi\u1ebft k\u1ebf ng\u1eafn tay, k\u1ebft h\u1ee3p h\u1ecda ti\u1ebft&nbsp;<br><strong>S\u1ea3n ph\u1ea9m thu\u1ed9c d\u00f2ng s\u1ea3n ph\u1ea9m :&nbsp;<\/strong>NEM NEW<\/p><p><strong>Th\u00f4ng tin ng\u01b0\u1eddi m\u1eabu:&nbsp;<\/strong>cao1m60, n\u1eb7ng 50kg, s\u1ed1 \u0111o 84 - 64&nbsp;- 90 m\u1eb7c s\u1ea3n ph\u1ea9m size 2<\/p><p><strong>S\u1ea3n ph\u1ea9m k\u1ebft h\u1ee3p:&nbsp;<\/strong>ch\u00e2n v\u00e1y Z03922<\/p>","sp_taoMoi":"2023-10-31 09:19:32","sp_capNhat":"2023-10-31 09:19:32","sp_trangThai":1,"l_ma":4,"color_id":1},{"sp_ma":"SM11282","sp_ten":"S\u01a0 MI CH\u1ea4M BI SM11282","sp_giaGoc":300000,"sp_giaBan":350000,"sp_sale":0,"sp_hinh":"16987691070-product.webp","sp_hinh1":"16987691071-product.webp","sp_hinh2":"16987691072-product.webp","sp_hinh3":"16987691073-product.webp","sp_thongTin":"<p><strong>Ch\u1ea5t li\u1ec7u:&nbsp;<\/strong>v\u1ea3i l\u1ee5a<\/p><p><strong>Ki\u1ec3u d\u00e1ng:&nbsp;<\/strong>\u00e1o s\u01a1 mi thi\u1ebft k\u1ebf tay b\u1ed3ng, tone m\u00e0u tr\u1eafng k\u1ebft h\u1ee3p h\u1ecda ti\u1ebft ch\u1ea5m bi&nbsp;<br><strong>S\u1ea3n ph\u1ea9m thu\u1ed9c d\u00f2ng s\u1ea3n ph\u1ea9m :&nbsp;<\/strong>NEM NEW<\/p><p><strong>Th\u00f4ng tin ng\u01b0\u1eddi m\u1eabu:&nbsp;<\/strong>cao1m60, n\u1eb7ng 50kg, s\u1ed1 \u0111o 84 - 64&nbsp;- 90 m\u1eb7c s\u1ea3n ph\u1ea9m size 2<\/p><p><strong>S\u1ea3n ph\u1ea9m k\u1ebft h\u1ee3p:&nbsp;<\/strong>ch\u00e2n v\u00e1y Z07762<\/p>","sp_taoMoi":"2023-10-31 09:18:27","sp_capNhat":"2023-10-31 09:18:27","sp_trangThai":1,"l_ma":4,"color_id":1},{"sp_ma":"TS60032","sp_ten":"\u00c1O THUN IN HOA TS60032","sp_giaGoc":300000,"sp_giaBan":400000,"sp_sale":0,"sp_hinh":"16987695160-product.webp","sp_hinh1":"16987695161-product.webp","sp_hinh2":"16987695162-product.webp","sp_hinh3":"16987695163-product.webp","sp_thongTin":"<p><strong>Ch\u1ea5t li\u1ec7u:&nbsp;<\/strong>v\u1ea3i thun&nbsp;cao c\u1ea5p<\/p><p><strong>Ki\u1ec3u d\u00e1ng:&nbsp;<\/strong>\u00e1o thun d\u00e1ng su\u00f4ng, c\u1ed5 tr\u00f2n, tone m\u00e0u tr\u1eafng ph\u1ed1i h\u00ecnh in ph\u00eda tr\u01b0\u1edbc<br><strong>S\u1ea3n ph\u1ea9m thu\u1ed9c d\u00f2ng s\u1ea3n ph\u1ea9m :&nbsp;<\/strong>NEM NEW<\/p><p><strong>Th\u00f4ng tin ng\u01b0\u1eddi m\u1eabu:&nbsp;<\/strong>m\u1eb7c s\u1ea3n ph\u1ea9m size 2<\/p><p><strong>S\u1ea3n ph\u1ea9m k\u1ebft h\u1ee3p:&nbsp;<\/strong>qu\u1ea7n Q67052<\/p>","sp_taoMoi":"2023-10-31 09:25:16","sp_capNhat":"2023-10-31 09:25:16","sp_trangThai":1,"l_ma":5,"color_id":1}],"first_page_url":"http:\/\/127.0.0.1:8000\/collections\/product?page=1","from":1,"last_page":2,"last_page_url":"http:\/\/127.0.0.1:8000\/collections\/product?page=2","links":[{"url":null,"label":"&laquo; Previous","active":false},{"url":"http:\/\/127.0.0.1:8000\/collections\/product?page=1","label":"1","active":true},{"url":"http:\/\/127.0.0.1:8000\/collections\/product?page=2","label":"2","active":false},{"url":"http:\/\/127.0.0.1:8000\/collections\/product?page=2","label":"Next &raquo;","active":false}],"next_page_url":"http:\/\/127.0.0.1:8000\/collections\/product?page=2","path":"http:\/\/127.0.0.1:8000\/collections\/product","per_page":9,"prev_page_url":null,"to":9,"total":10}